\relax 
\providecommand\hyper@newdestlabel[2]{}
\catcode `"\active 
\providecommand\HyperFirstAtBeginDocument{\AtBeginDocument}
\HyperFirstAtBeginDocument{\ifx\hyper@anchor\@undefined
\global\let\oldcontentsline\contentsline
\gdef\contentsline#1#2#3#4{\oldcontentsline{#1}{#2}{#3}}
\global\let\oldnewlabel\newlabel
\gdef\newlabel#1#2{\newlabelxx{#1}#2}
\gdef\newlabelxx#1#2#3#4#5#6{\oldnewlabel{#1}{{#2}{#3}}}
\AtEndDocument{\ifx\hyper@anchor\@undefined
\let\contentsline\oldcontentsline
\let\newlabel\oldnewlabel
\fi}
\fi}
\global\let\hyper@last\relax 
\gdef\HyperFirstAtBeginDocument#1{#1}
\providecommand\HyField@AuxAddToFields[1]{}
\providecommand\HyField@AuxAddToCoFields[2]{}
\select@language{brazil}
\@writefile{toc}{\select@language{brazil}}
\@writefile{lof}{\select@language{brazil}}
\@writefile{lot}{\select@language{brazil}}
\@writefile{toc}{\contentsline {section}{\numberline {1}Introdu\IeC {\c c}\IeC {\~a}o}{3}{section.1}}
\@writefile{toc}{\contentsline {section}{\numberline {2}Caminho de Dados}{3}{section.2}}
\newlabel{fig:01}{{2}{3}{Caminho de Dados}{section.2}{}}
\newlabel{cod:ALU}{{2}{3}{Caminho de Dados}{section.2}{}}
\@writefile{lof}{\contentsline {figure}{\numberline {1}{\ignorespaces -legenda-}}{4}{figure.1}}
\newlabel{-para referenciar figura-}{{1}{4}{-legenda-}{figure.1}{}}
\@writefile{toc}{\contentsline {section}{\numberline {3}Metodologia}{4}{section.3}}
\@writefile{toc}{\contentsline {subsection}{\numberline {3.1}}{4}{subsection.3.1}}
\@writefile{toc}{\contentsline {subsubsection}{\numberline {3.1.1}}{4}{subsubsection.3.1.1}}
\@writefile{toc}{\contentsline {paragraph}{\numberline {3.1.1.1}}{4}{paragraph.3.1.1.1}}
\@writefile{toc}{\contentsline {subparagraph}{}{4}{section*.2}}
\@writefile{toc}{\contentsline {section}{\numberline {4}Resultados Computacionais}{4}{section.4}}
\@writefile{toc}{\contentsline {section}{\numberline {5}Refer\IeC {\^e}ncias Bibliogr\IeC {\'a}ficas}{4}{section.5}}
