\select@language {brazil}
\contentsline {section}{\numberline {1}Introdu\IeC {\c c}\IeC {\~a}o}{3}{section.1}
\contentsline {section}{\numberline {2}Caminho de Dados}{3}{section.2}
\contentsline {section}{\numberline {3}Metodologia}{4}{section.3}
\contentsline {subsection}{\numberline {3.1}}{4}{subsection.3.1}
\contentsline {subsubsection}{\numberline {3.1.1}}{4}{subsubsection.3.1.1}
\contentsline {paragraph}{\numberline {3.1.1.1}}{4}{paragraph.3.1.1.1}
\contentsline {subparagraph}{}{4}{section*.2}
\contentsline {section}{\numberline {4}Resultados Computacionais}{4}{section.4}
\contentsline {section}{\numberline {5}Refer\IeC {\^e}ncias Bibliogr\IeC {\'a}ficas}{4}{section.5}
